SECUENCIAL
2.464619
2.313258
2.326651
2.269231
2.270155
2.270522
2.262575
2.261146
2.290426
2.331874
2.264529
2.262970
2.268783
2.255800
2.295361
2.268149
2.278693
2.275586
2.264357
2.262274
2.253880
2.259572
2.259760
2.258067
2.263515
2.263879
2.276314
2.259047
2.262451
2.261673
2.265349
2.255452
2.258325
2.259226
2.258151
2.291790
2.271276
2.259305
2.266312
2.264347
2.325038
2.303897
2.266244
2.269164
2.256181
2.278779
2.264681
2.262382
2.257220
2.256079
2.261669
2.257545
2.259667
2.259680
2.260830
2.258668
2.261170
2.262446
2.263865
2.257802
2.257035
2.310537
2.272263
2.272468
2.272191
2.264685
2.280022
2.285299
2.262378
2.262055
2.263669
2.295651
2.266013
2.254131
2.261286
2.255609
2.252448
2.261878
2.257534
2.258167
2.259567
2.255422
2.260197
2.287676
2.263337
2.269277
2.261671
2.309643
2.263235
2.268381
2.266165
2.257903
2.281202
2.264216
2.261261
2.261345
2.261139
2.259278
2.265042
2.260208
