TIEMPOS PARALELO
0.313763
0.295316
0.282957
0.292358
0.301165
0.320462
0.302408
0.307278
0.283987
0.309882
0.294211
0.312720
0.291674
0.286820
0.300339
0.282301
0.302691
0.313661
0.294325
0.292677
0.291392
0.307341
0.314733
0.319726
0.317259
0.277307
0.292734
0.307498
0.319932
0.302140
0.293530
0.305157
0.287199
0.304294
0.302352
0.317411
0.285004
0.290978
0.304036
0.321496
0.292286
0.297492
0.295094
0.296644
0.304897
0.308940
0.300390
0.293433
0.323232
0.311652
0.297268
0.291490
0.304968
0.301756
0.296694
0.298316
0.295347
0.342700
0.300487
0.287075
0.311456
0.302188
0.315575
0.303043
0.287231
0.292812
0.293945
0.315602
0.297292
0.315260
0.300087
0.296765
0.293215
0.276927
0.282927
0.301169
0.305705
0.290660
0.307251
0.303854
0.309167
0.306646
0.309363
0.284827
0.287794
0.294268
0.302421
0.321079
0.299657
0.297169
0.284657
0.311705
0.308759
0.309096
0.286251
0.295846
0.283411
0.306775
0.320286
0.323277
TIEMPOS RUNTIME
0.314671
0.314389
0.291311
0.322795
0.323602
0.320828
0.362190
0.293154
0.303599
0.322784
0.315866
0.314503
0.293450
0.320153
0.318302
0.309697
0.321729
0.306099
0.313019
0.301831
0.328706
0.308294
0.308992
0.317309
0.286381
0.348906
0.322524
0.318248
0.339960
0.317966
0.340922
0.310610
0.314645
0.312979
0.319237
0.320073
0.321094
0.322391
0.311712
0.342283
0.308320
0.342853
0.309814
0.290589
0.307991
0.316217
0.319800
0.315798
0.323890
0.311832
0.302958
0.291723
0.306002
0.314352
0.295760
0.315264
0.298977
0.324833
0.321486
0.328863
0.329041
0.349003
0.290449
0.311995
0.299569
0.330824
0.297682
0.290971
0.296212
0.323029
0.315080
0.320905
0.333625
0.329636
0.294825
0.327452
0.277214
0.317631
0.302223
0.304108
0.300656
0.316211
0.291080
0.320596
0.322739
0.312157
0.321349
0.316163
0.327415
0.300403
0.305055
0.290382
0.317427
0.299615
0.302095
0.314570
0.317763
0.327696
0.308407
0.318522
TIEMPOS SECUENCIAL CRITICA
0.218218
0.224219
0.215529
0.223674
0.220072
0.237753
0.226115
0.217053
0.230770
0.225855
0.218463
0.217462
0.234975
0.237430
0.232362
0.238544
0.224697
0.234781
0.232679
0.224813
0.217068
0.228585
0.227209
0.223941
0.221496
0.231973
0.217232
0.225187
0.217507
0.227743
0.237354
0.212841
0.220146
0.211605
0.229487
0.213365
0.217763
0.213281
0.221579
0.212339
0.220170
0.222141
0.214129
0.215486
0.231004
0.236821
0.218873
0.241418
0.230534
0.221415
0.225998
0.233824
0.238463
0.231682
0.244662
0.212522
0.224098
0.243244
0.226641
0.208668
0.218720
0.222838
0.228872
0.227895
0.225889
0.225174
0.227970
0.220581
0.217152
0.220718
0.213119
0.221297
0.236734
0.253237
0.222813
0.220417
0.218176
0.214466
0.223934
0.236411
0.211113
0.214317
0.213704
0.231531
0.214864
0.231871
0.224507
0.215537
0.225093
0.217871
0.219895
0.233847
0.245647
0.219837
0.243377
0.234065
0.231717
0.210995
0.210595
0.215039
TIEMPOS VARIABLES PRIVADAS
0.341963
0.339855
0.342800
0.342917
0.338305
0.328344
0.353220
0.342524
0.347998
0.365684
0.348978
0.349671
0.363916
0.346114
0.328529
0.338912
0.337372
0.344938
0.338185
0.338446
0.338732
0.332325
0.349592
0.335856
0.339330
0.351385
0.351825
0.329742
0.348997
0.340058
0.344200
0.356607
0.345817
0.339666
0.360460
0.334156
0.354430
0.341268
0.334586
0.345203
0.351984
0.343236
0.351512
0.342864
0.358213
0.350548
0.344028
0.352276
0.353448
0.344697
0.329039
0.343554
0.338751
0.344648
0.340389
0.334157
0.337696
0.337809
0.331186
0.344881
0.341114
0.337163
0.341828
0.354370
0.355421
0.342127
0.337115
0.341450
0.354515
0.339416
0.356646
0.352980
0.342112
0.342598
0.344087
0.333628
0.332930
0.334474
0.350809
0.341479
0.338964
0.337828
0.362313
0.337951
0.336800
0.329815
0.337218
0.337716
0.334351
0.343808
0.345464
0.339799
0.355069
0.335657
0.354796
0.351015
0.328360
0.337576
0.347338
0.337094
TIEMPOS PROGRAMA SECUENCIAL
0.555884
0.553690
0.549318
0.551121
0.556450
0.551732
0.549595
0.551603
0.551897
0.550627
0.550007
0.551377
0.551806
0.552362
0.549230
0.551503
0.552236
0.552631
0.552170
0.550212
0.551965
0.548909
0.549462
0.549093
0.552431
0.555105
0.556087
0.549898
0.551535
0.550234
0.549524
0.551800
0.550953
0.553161
0.550325
0.551505
0.552850
0.552539
0.549901
0.552941
0.550563
0.550184
0.553356
0.549907
0.553627
0.551962
0.550301
0.551715
0.551764
0.551188
0.554720
0.557049
0.552582
0.555071
0.551588
0.552929
0.553834
0.550443
0.551532
0.552351
0.551628
0.552219
0.550851
0.553079
0.550669
0.551411
0.552127
0.555779
0.555150
0.556416
0.553836
0.556769
0.561030
0.555907
0.553226
0.552436
0.558914
0.554399
0.551126
0.555606
0.553212
0.550342
0.553250
0.550928
0.555039
0.553895
0.551539
0.648804
0.564262
0.554715
0.554146
0.577704
0.550538
0.553186
0.551058
0.552366
0.553918
0.553055
0.554107
0.554580
